<?xml version="1.0" encoding="utf-8"?>
<!-- Generator: Adobe Illustrator 16.0.4, SVG Export Plug-In . SVG Version: 6.00 Build 0)  -->
<!DOCTYPE svg PUBLIC "-//W3C//DTD SVG 1.1//EN" "http://www.w3.org/Graphics/SVG/1.1/DTD/svg11.dtd">
<svg version="1.1" id="Layer_1" xmlns="http://www.w3.org/2000/svg" xmlns:xlink="http://www.w3.org/1999/xlink" x="0px" y="0px"
	 width="362px" height="88px" viewBox="12.083 8.5 362 88" enable-background="new 12.083 8.5 362 88" xml:space="preserve">
<g id="Captions">
</g>
<g id="Minus">
</g>
<g id="Right">
</g>
<g id="Left">
</g>
<g id="Up">
</g>
<g id="Down">
</g>
<g id="Play">
</g>
<g id="Forward">
</g>
<g id="Reverse">
</g>
<g id="Stop">
</g>
<g id="Pause_1_">
</g>
<g id="Record">
</g>
<g id="Close">
</g>
<g id="Check">
</g>
<g id="Power">
</g>
<g id="Skip_Forward">
</g>
<g id="Skip_Backward">
</g>
<g id="Cancel">
</g>
<g id="Info">
</g>
<g id="Help">
</g>
<g>
	<path fill="#FFFFFF" d="M67.724,43.413c0-18.745-12.083-29.913-35.572-29.913H14.989v79h16v-67h2.408
		c16.374,0,19.186,9.233,19.186,17.814c0,9.035-3.594,19.849-17.594,20.978v1.13L55.414,92.5h18.068L54.287,67.562
		C64.901,61.125,67.724,51.432,67.724,43.413z"/>
	<polygon fill="#FFFFFF" points="95.989,68.5 109.989,68.5 109.989,57.5 95.989,57.5 95.989,49.5 113.989,49.5 113.989,37.5 
		81.989,37.5 81.989,92.5 115.775,92.5 118.919,80.5 95.989,80.5 	"/>
	<polygon fill="#FFFFFF" points="142.989,37.5 129.989,37.5 129.989,92.5 160.222,92.5 163.575,80.5 142.989,80.5 	"/>
	<rect x="170.989" y="37.5" fill="#FFFFFF" width="14" height="55"/>
	<rect x="200.989" y="37.5" fill="#FFFFFF" width="14" height="55"/>
	<polygon fill="#FFFFFF" points="289.245,37.5 275.167,66.663 260.195,37.5 233.376,37.5 216.99,65.468 216.99,66.586 234.495,92.5 
		251.254,92.5 231.7,63.684 246.052,39.5 246.512,39.5 274.532,94.5 275.65,94.5 303.1,37.5 	"/>
	<path fill="#FFFFFF" d="M321.871,35.5l-28.828,57h13.854l3.352-8h24.359l3.576,8h15.084l-30.279-57H321.871z M314.831,76.5
		l7.375-13.816l7.709,13.816H314.831z"/>
	<circle fill="#FFFFFF" cx="178.025" cy="20.393" r="8.893"/>
	<path fill="#FFFFFF" d="M367.187,26.583c0,0,2.745-1.43,2.819-5.214c-0.071-5.461-4.524-9.869-10.002-9.869
		c-5.522,0-10.017,4.415-10.017,9.938V51.5h6v-7.21c2,0.769,3.215,1.21,5.017,1.21c6.075,0,11.008-4.925,11.008-11
		C372.012,28.562,367.187,26.583,367.187,26.583z M361.004,39.5c-2.25,0-5.017-0.687-5.017-0.687V34.5v-3v-2v-4v-4
		c0-2.209,1.808-4,4.017-4s4.008,1.791,4.008,4s-1.782,4-3.991,4h-2.033v4h3.033c2.76,0,4.991,2.239,4.991,5
		C366.012,37.261,363.765,39.5,361.004,39.5z"/>
</g>
</svg>
