<?xml version="1.0" encoding="utf-8"?>
<!-- Generator: Adobe Illustrator 16.0.4, SVG Export Plug-In . SVG Version: 6.00 Build 0)  -->
<!DOCTYPE svg PUBLIC "-//W3C//DTD SVG 1.1//EN" "http://www.w3.org/Graphics/SVG/1.1/DTD/svg11.dtd">
<svg version="1.1" id="Layer_1" xmlns="http://www.w3.org/2000/svg" xmlns:xlink="http://www.w3.org/1999/xlink" x="0px" y="0px"
	 width="339.625px" height="84.5px" viewBox="-0.667 0.25 339.625 84.5" enable-background="new -0.667 0.25 339.625 84.5"
	 xml:space="preserve">
<g id="Captions">
</g>
<g id="Minus">
</g>
<g id="Right">
</g>
<g id="Left">
</g>
<g id="Up">
</g>
<g id="Down">
</g>
<g id="Play">
</g>
<g id="Forward">
</g>
<g id="Reverse">
</g>
<g id="Stop">
</g>
<g id="Pause_1_">
</g>
<g id="Record">
</g>
<g id="Close">
</g>
<g id="Check">
</g>
<g id="Power">
</g>
<g id="Skip_Forward">
</g>
<g id="Skip_Backward">
</g>
<g id="Cancel">
</g>
<g id="Info">
</g>
<g id="Help">
</g>
<path d="M52.735,32.913C52.735,14.168,40.652,3,17.164,3H0v79h16V15h2.408c16.374,0,19.186,9.233,19.186,17.815
	C37.594,41.849,34,52.663,20,53.792v1.13L40.425,82h18.068L39.298,57.062C49.913,50.625,52.735,40.931,52.735,32.913"/>
<polygon points="81,58 95,58 95,47 81,47 81,39 99,39 99,27 67,27 67,82 100.786,82 103.93,70 81,70 "/>
<polygon points="128,27 115,27 115,82 145.234,82 148.587,70 128,70 "/>
<rect x="156" y="27" width="14" height="55"/>
<rect x="186" y="27" width="14" height="55"/>
<polygon points="274.256,27 260.178,56.163 245.206,27 218.388,27 202,54.968 202,56.086 219.506,82 236.265,82 216.712,53.184 
	231.064,29 231.523,29 259.543,84 260.662,84 288.111,27 "/>
<path d="M308.001,25h-1.119l-28.828,57h13.855l3.352-8h24.359l3.575,8h15.084L308.001,25z M299.843,66l7.375-13.816L314.927,66
	H299.843z"/>
<path d="M163.036,1c-4.911,0-8.893,3.981-8.893,8.893c0,4.911,3.982,8.893,8.893,8.893s8.894-3.982,8.894-8.893
	C171.929,4.981,167.947,1,163.036,1"/>
</svg>
